titre,contenu,date,auteur,journal
,,,,
Ce que pense une femme pendant la pratique anale - Le blog sexy de Jacquie et Michel !,"La pratique du sexe anal est souvent un tabou dans les discussions. Si les mecs arrivent à en parler librement, certaines femmes ont beaucoup plus de mal à en parler, à se livrer de peur d’être jugées. Contrairement au sexe vaginal duquel on parle plus librement.
Si vous ne le savez pas encore, sachez que chez la femme, l’anus est une zone riche en nerfs et peut être source de réel plaisir, surtout lorsque le clitoris est stimulé lors de la pénétration. Si vous n’êtes point attiré par ça, il reste tout de même le périnée juste à côté, qui est une zone très érogène. Mais attention, pour pratiquer la sodomie, il ne faut surtout pas forcer votre partenaire, il faut vraiment en avoir envie et que cela reste un moment de plaisir pour chacun.
Aussi, on le rappelle pour les plus bourrins d’entre vous : on ne rentre jamais à sec, car, contrairement au vagin, il n’y pas de “lubrifiant naturel”.
Voici donc la liste de ces pensées féminines durant une sodomie (liste non exhaustive et à prendre avec humour)  :
1 – Je suis vraiment stressée. J’espère que ça ne va pas faire trop mal.
2 – En tout cas, lui, il a l’air vraiment d’attaque ! Ça doit faire longtemps qu’il fantasme là-dessus.
3 – Je me suis bien lavé les fesses avant. Malgré ça, j’ai peur que ça sente.
4 – Et qu’est-ce qui va arriver si j’ai envie de péter ? Est-ce que je vais expulser son membre ?
5 – Hum. Il a vraiment de la difficulté à entrer son membre. Je dois être trop stressée.
6 – Allez ! Vas-y ! N’aie pas peur de mettre du lubrifiant !
7 – Il devrait peut-être m’aider à me détendre. Et s’il me caressait un peu le derrière ?
8 – Bon. Ça semble marcher !
9 – Oh ! Vas-y doucement là ! Ça me fait mal !
10 – Bon. Ça va ! Il a compris. Il doit y aller plus doucement que lorsqu’on le fait dans l’autre orifice.



22PARTAGESShareTweet",2022-03-11T17:00:42,Charlotte,JM
Le CBD peut-il améliorer votre vie sexuelle ? - Le blog sexy de Jacquie et Michel !,"Depuis quelques temps, de plus en plus de magasins spécialisés dans le CBD prennent vie autour de nous. Issu des fleurs de cannabis, le cannabidiol (CBD) est l’une des principales substances actives de la plante. Toutefois, il n’a pas les effets psychoactifs du THC, ce qui rend donc son utilisation totalement légale ! Vendu sous différentes formes : huiles, lubrifiants, compléments alimentaires, infusions, cosmétiques et bien d’autres… cette substance est devenue un must-have pour de nombreuses personnes. Suscitant alors notre curiosité sur ses effets durant les ébats intimes, nous avons mené notre petite enquête sur ses bienfaits.
L’allié parfait pour stimuler la circulation sanguine.
Appliqué localement, sous forme de lubrifiant ou de crème, le CBD va stimuler nos vaisseaux sanguins permettant ainsi au sang de circuler plus facilement et donc d’accroître notre excitation ! Messieurs, vous pouvez aussi l’utiliser afin de résoudre des problèmes d’érection en appliquant des gels ou sprays sur votre pénis.
Le CBD diminue le stress et la douleur.
Nous sommes tous sujet au stress, ce qui peut impacter notre vie sexuelle… C’est donc grâce aux effets de relaxation du CBD qu’il est recommandé de prendre des bonbons ou compléments juste avant l’acte afin de pouvoir se détendre et de s’apaiser pour que vous puissiez passer un bon moment de plaisir ! Il est également conseillé d’en prendre pour soulager les douleurs provoquées par l’endométriose.
En plus de tous les bienfaits évoqués précédemment, il s’agit aussi d’une alternative naturelle, alors que demander de mieux ?



19PARTAGESShareTweet",2022-03-10T17:00:33,Victorine,JM
Des vaisseaux en forme de vulve pour contrer les fusées en forme de zob - Le blog sexy de Jacquie et Michel !,"« Restorer l’égalité des genres dans le cosmos. » Il faut dire que jusqu’ici, le tourisme spatial est resté un sport de vieux mâles blancs très très riches, aux commandes de grosses fusées très très phalliques. Hors, pour la chercheuse Lucia Hartmann, spécialiste de l’aérospatiale, il y aurait de la place pour des alternatives plus inclusives. Par exemple, des vaisseaux en forme vulve.
À l’occasion de la journée internationale du droit des femmes, elle a donc approché l’association militante Wer Braucht Feminismus (qu’on pourrait traduire par « Qui a besoin de féminisme ? »), ou WBF, pour promouvoir et défendre le projet. Une pétition sur Change.org a ainsi été lancée, afin d’inviter l’Agence Spatiale Européenne à se pencher sur la question. Car outre le coup de com’ sur un sujet très actuelle, la scientifique entend défendre un design pas si absurde, qui pourrait bien bouleverser les conventions du milieu. Car l’engin se révèlerait « étonnamment aérodynamique« , sa forme en V acérée offrant une traînée idéalement faible pour traverser l’atmosphère, quand son fuselage en carbon renforcé serait en mesure d’encaisser des températures folles tout en faisant de substantielles économies de carburant, légèreté oblige.
Reste que vu la tournure que prend la nouvelle course à l’espace, la prochaine saga Star Wars pourrait bien se voir classer X(-wing) rien qu’à cause des astronefs. « Et toi, tu veux voir mon gros destroyer pilonner ton vaisseau-milf ? »



34PARTAGESShareTweet",2022-03-09T17:00:56,Savinien,JM
Brésil : Elle se masturbe sur son lieu de travail ! - Le blog sexy de Jacquie et Michel !,"Dans un cas vraiment bien précis, on vous rassure tout de suite !
Après l’autorisation de la masturbation en public par un tribunal suédois, c’est au Brésil qu’une autre affaire vient d’être jugée, et elle n’est encore une fois pas commune !
C’est une drôle d’histoire qui est arrivé à cette jeune trentenaire brésilienne, qui souffre d’une pathologie un peu particulière : elle a des orgasmes compulsifs, un trouble qui la fait chercher le plaisir sexuel et qui l’oblige à se masturber plus d’une quarantaine de fois par jour !
Cette obsession est apparue d’un coup, et la jeune femme s’est alors retrouvée dans une situation plus que délicate : ayant un travail, il lui fallait donc prendre sans arrêt des pauses pour pouvoir se satisfaire et surtout se calmer et se concentrer !
Ayant bien conscience que cette situation n’était pas normale, ni vivable pour elle sur le long terme, elle a décidé tout d’abord de se faire suivre médicalement, pour essayer de trouver une solution à cette histoire invraisemblable.
Sous sédatifs, les effets se sont faits sentir, en abaissant sa moyenne de masturbation journalières à « seulement » 18 par jour…
Il était donc toujours difficile pour elle de travailler dans ces conditions, et pour éviter de passer pour une feignante car prenant tout le temps des pauses, et ainsi se faire licencier, elle a décidé de se protéger juridiquement, pour éviter tout problème avec son employeur et ainsi faire connaître sa pathologie.
Après une longue bataille judiciaire, elle a obtenu gain de cause, et surtout, fait important, elle a obtenu de pouvoir se masturber 15 minutes toutes les 2 heures à son travail, avec l’autorisation d’utiliser le matériel de l’entreprise pour accéder à des contenus érotico-pornographiques pour « l’aider » à atteindre la jouissance !



26PARTAGESShareTweet",2022-03-08T17:00:00,Ricardo,JM
,,,,
Les 50 raisons de faire l'amour selon Lily Aldrin - Le blog sexy de Jacquie et Michel !,"Si vous ne connaissez pas encore la série How I met your mother c’est le moment de vous y intéresser ! Il s’agit là d’une mine d’or en matière de techniques de drague dont seul Barney Stinson en a le secret. Mais pour aujourd’hui, on vous partage la liste un peu folle que Lily a dressé sur une serviette du Mac Laren’s, lorsque Ted avait retrouvé un gars nu sur son canapé qui lui avait expliqué que c’était sa technique fétiche pour conclure.
Alors voici les 50 raisons de faire l’amour d’après Lily :

Parce que l’on ne peut pas dormir
Pour se remettre ensemble
Pour se dire adieu
Votre ami vous a parlé d’une nouvelle position
Pour se venger
Sexe post-rupture
Faire du bruit
Il n’y a rien de bien à la télé
Parce que vous êtes à l’hôtel
Par curiosité
Car il pleut
C’est la mi-temps
Pour faire un régime/exercice
Pour célébrer une récente perte de poids
Vous avez finalement réussi à mettre vos enfants au lit
C’est la soirée du bal de fin d’année
Vous êtes déjà à cette place et ne voulez pas bouger votre voiture
Vous voulez lui montrer votre nouvelle lingerie
Pour célébrer une victoire de votre équipe favorite/ou de votre candidat politique
Pour saisir la chance de le faire dans un endroit spécifique (ex: avion, Burger King, salle de bain)
Pour prouver que nous n’êtes pas en rut
Afin de soulager votre stress
Vous venez de vous raser les jambes
Vous avez oublié d’acheter un cadeau d’anniversaire
Vous entendez Marvin Gaye jouer à la radio
Pour célébrer votre joie de vivre après une expérience où vous avez frôlé la mort
Il s’agit de votre seule chance de devenir célèbre
Le temps de faire cuire des œufs
Éviter de faire le ménage, étudier, ou toute autre sorte de travail
Elle en a envie
Car il fait froid dehors
Par pitié
Pour battre vos voisins
Votre colocataire est partie en vacances (week-end) et vous pouvez coucher avec qui vous voulez
Célébrer le fait que vous n’êtes pas enceinte en faisant du sexe bien protégé
Car c’est pratique
Ils ont l’air conditionné et vous non
Parce qu’il est étranger et que vous n’avez jamais couché avec une personne de cette nationalité
Merde, vos mollets ont l’air si sexy avec ce mini short
Vous avez appelé ou envoyé un SMS à la mauvaise personne mais elle était là de toute façon
Parce que sa cousine à l’air super chaude et que vous n’avez jamais été aussi proche d’elle
Vous emménagez dans un nouvel appartement
Parce qu’il a dit qu’il vous aimait et que vous ne voulez pas répondre
Vous avez pris un tir à sa place
Vos préservatifs arrivent à expiration
Ça devient un peu dur
Vous avez un manque de communication
Pour renforcer les bonnes manières (comme avoir une bonne hygiène dentaire)
Pour changer de sujet
Par amour

À vous de choisir lesquelles sont les plus crédibles et surtout compter combien de ces raisons vous sont étrangement familières. Désormais, vous n’avez plus aucune excuse pour ne pas trouver de quoi conclure lors de votre prochain date !
 



22PARTAGESShareTweet",2022-03-07T17:00:24,Victorine,JM
,,,,
,,,,
Trouvez le temps de vous exciter - Le blog sexy de Jacquie et Michel !,"Métro, boulot, dodo…Mais où est « sexo » ?! Selon une étude de 2015, 54% des français estiment avoir des journées trop courtes. De plus, la vie en couple peut souvent tomber dans la routine. Pour solidifier vos sentiments et vos liens amoureux (et donc faire l’amour), on vous donne quelques conseils pour booster votre libido !
Changez votre façon de faire l’amour
Tentez de nouvelles approches. Faites-le habillé, poussez les préliminaires au maximum ou aidez-vous de jouets !
Planifiez des rendez-vous consacrés au sexe
Plus de place dans votre emploi du temps ? Pourquoi ne pas prévoir un petit moment intime à l’hôtel avec votre partenaire préféré ? Le 5 à 7 est toujours aussi tendance. N’ayez surtout pas honte lors de votre réservation, les hôtels se sont adaptés à cette tendance et proposent des formules de chambres disponibles sur l’après-midi. En plus, si vous choisissez un établissement plutôt sympa, vous aurez aussi le sentiment d’être en vacances ! Cela peut aussi se dérouler sur un week-end, pas trop loin de chez vous et à moindre coût !
Pimentez votre attraction
Essayez de vous moderniser avec les moyens techniques de nos jours. Les réseaux sociaux sont des outils faciles pour envoyer quelques messages sexys et faire monter la pression. Les emojis peuvent transmettre des sentiments plutôt chauds ! On vous connaît, essayez de ne pas trop abuser de l’emoji aubergine !
Servez-vous de jouets pour un petit moment chaud !
Avoir un petit jouet dans son sac permet de se faire un petit plaisir à n’importe quel moment de la journée, lors de la queue pour le drive ou bien le temps d’une pause sur une aire d’autoroute. Mettez la priorité sur vos sens et vos désirs !
Écoutez-vous et sachez saisir l’opportunité
Dans cette idée, redonnez du sens à vos gestes du quotidien. Ne soyez pas pour autant dans l’extrême, un léger bisou dans la rue n’est pas une occasion pour forniquer aux yeux de tous !



14PARTAGESShareTweet",2022-03-04T17:00:51,Charlotte,JM
,,,,
Les saisons ont-elles un impact sur notre libido ? - Le blog sexy de Jacquie et Michel !,"C’est bien connu, la météo rythme nos humeurs, c’est donc tout naturellement qu’elle influence aussi nos désirs en matière de séduction !
De nombreuses études démontrent que nous sommes sexuellement plus actifs en été qu’en période hivernale. En effet, en plus d’être une saison assimilée à la chaleur, à la plage et aux nuits sans fin, c’est aussi notre moment préféré pour lâcher prise et se laisser aller au gré de nos envies. Cette montée de désir est due au fait que notre stress ait également pris des vacances, laissant alors à notre libido toute la place nécessaire pour refaire surface. Attention tout de même aux périodes de canicules qui ne sont pas propices aux rapprochements physiques.
Une fois l’été terminé, l’automne entre en jeu et nous amorçons le début de notre hibernation sexuelle. Le temps commençant à se refroidir, cela nous incite à rester bien au chaud chez soi, sous un plaid et devant Netflix. Lorsque l’hiver arrive, il est souvent accompagné de petites dépressions qui ne favorisent pas l’augmentation de la libido… Enfin, avec les beaux jours qui pointent le bout de leur nez, le printemps débute la saison des amours et vient réveiller nos désirs afin d’anticiper la saison torride qu’est l’été !



22PARTAGESShareTweet",2022-03-03T17:00:29,Victorine,JM
Le jockstrap est-il l'avenir de l'homme ? - Le blog sexy de Jacquie et Michel !,"En matière de lingerie, les dames ont l’embarras du choix. Culotte ou shorty, string ou tanga, taille basse ou taille haute, satin ou dentelle, on ne sait même plus ou donner de la fesse. Pour ces messieurs en revanche, rien que le sempiternel tryptique : slip, caleçon, boxer (si ce n’est peut-être un string de temps en temps, pour les occasion festives). Mais alors, comment mettre en valeur son boule dûment bombé par des heures squats ridicules à la salle de sport, quand on est un mâle viril ?
La réponse tient en deux syllabes : jockstrap. Si, à l’origine, le terme désigne cette fameuse coquille protectrice de sport, portée sous le pantalon pour couvrir ses parties intimes, il n’a pas fallu grand chose pour adapter le concept à un usage plus sexy : une coupe flatteuse, un matériau noble et/ou ajouré pour le cache-sexe, des couleurs criardes pour les lanières ceignant les cuisses et l’élastique de taille, et le tour est joué. Voilà un dessous seyant qui, en plus d’emballer le paquet avec un relief carrément ostentatoire, laisse les parties charnues entièrement à l’air, offertes aux regards indiscret d’un ou d’une partenaire aussi voyeuse que désireuse…
Plébiscité comme sous-vêtement d’apparat dans la communauté gay, pour la vue imprenable qu’il offre sur le postérieur des copains, le jockstrap ne pourrait-il pas devenir l’accessoire indispensable de la barde-robe de l’homme moderne, sûr de lui et soucieux de son allure, quelle que soit son obédience sexuelle ? La question mérite d’être posée…



17PARTAGESShareTweet",2022-03-02T17:00:12,Savinien,JM
Le secret du Point G dévoilé sur TikTok ? - Le blog sexy de Jacquie et Michel !,"Les utilisateurs du célèbre réseau social sont obsédés par cette technique qui permettrait d’agir directement sur le Point G féminin.

Selon une tendance virale sur TikTok, faire en sorte que son partenaire appuie sur le bas de son ventre pendant l’amour est la technique qui permettrait d’atteindre le Point G. Enfoui sous les intestins et la vessie, au-dessus de l’os pubien, c’est là que se situerait cet endroit mythique, dont la quête est aussi acharnée que l’Eldorado.
Mythe ou réalité ?
Ce conseil a ainsi fait son bout de chemin sur l’application après la publication de deux vidéos utilisant un clip de Monstres et Compagnie. Dans la première,@brooke.lebedew affirmait que presser l’estomac d’une femme tout en la pénétrant permettait d’atteindre l’orgasme à chaque fois. Dans l’autre, @kendra.trost disait même que cela risquait de mettre les femmes enceintes, tant cela allait les faire adorer le sexe.

 @brooke.lebedew 
Feels amazing 🤩 #fyp #foryou #sex #newyear #boostofhope #pleasure #trend
 ♬ It could let in a child – Fern 🪴 

 
Soyons francs, cela ne donne pas d’orgasme à chaque fois et cela n’augmente pas les risques de grossesse non-désirée. Mais cette technique est-elle utile pour atteindre plus facilement la jouissance ?
En 2016, Carol Queen, sexologue américaine, avait en effet expliqué dans Glamour qu’une stimulation extérieure, via l’abdomen, pouvait être réalisée en appuyant sur la vessie, qui à son tour venait toucher le Point G. Une technique qui peut aussi être utilisée durant le sexe oral.
Attention aux effets secondaires
Si l’existence même du Point G demeure controversée, vous pouvez donc toujours tenter d’appuyer sur le ventre de votre partenaire pendant l’amour, mais à vos risques et périls. En effet, le premier commentaire sur la vidéo de Brooke Lebedew est formel : « Mon copain a essayé ça sur moi et j’ai juste fait un énorme pet… »




 






22PARTAGESShareTweet",2022-03-01T17:00:00,Ricardo,JM
Dernière ligne droite pour la levée de fonds Jimizz - Le blog sexy de Jacquie et Michel !,"Destinée à chambouler le milieu du X pour les consommateurs et les créateurs, le Jimizz entame sa dernière semaine de levée de fonds avec déjà près de 2 millions récoltés.

Un système de Livret X pour faire des intérêts avec ses jetons, une marketplace NFT qui proposera des contenus inédits, et même la possibilité d’obtenir un pourcentage sur tous les échanges en Jimizz, un jeu qui permettra de collectionner les cartes des modèles pour obtenir des vidéos exclusives et personnalisées, la crypto-monnaie de J&M fourmille de fonctionnalités.

Sans oublier la plus importante : la possibilité de payer en JMZ sur tous les sites du groupe, à des tarifs très avantageux. Conscients de la qualité du projet et de son urgence au vu des attaques incessantes du secteur bancaire contre le business adulte, de nombreux ambassadeurs ont rejoint l’aventure Jimizz. Des actrices reconnues comme Lylou Glams, Ania Kinski, Cassie Diaz ou Mya Lorenn, mais aussi des modèles indépendants voire des personnalités mainstream comme Jean-Michel Maire.

Le projet devait à minima atteindre le million pour se concrétiser et il a largement dépassé ce seuil en se situant, à l’heure où nous écrivons ces lignes, à 1,8 millions. Dans les prochaines semaines et les prochains mois, des étapes importantes seront franchies, comme l’audit du jeton par Certik, le listing, l’ouverture de la marketplace NFT et bien d’autres.

Tout cela dans l’objectif d’aider les consommateurs à mieux profiter de leurs contenus et les créateurs à mieux être rétribués pour leur travail.
Vous trouverez ici toutes les informations sur le projet, si vous voulez vous aussi faire partie de la révolution !



22PARTAGESShareTweet",2022-02-28T17:03:57,Ricardo,JM
,,,,
Le sexe rend-il intelligent ? - Le blog sexy de Jacquie et Michel !,"Une étude vient de sortir et elle devrait donner une excuse à certains pour pratiquer : les relations sexuelles rendraient plus intelligent.
En effet, l’université américaine du Maryland et une autre de la fac de Konkuk de Séoul, en Corée du Sud révèlent que les relations sexuelles peuvent rendre plus intelligent, ou du moins augmenter les fonctions cognitives et de mémoire en stimulant la création de cellules nerveuses.
Cette étude effectuée sur les rats aurait montré que les relations sexuelles augmentent leurs fonctions cognitives. En novembre dernier, l’Université Konkuk de Séoul en Corée du Sud, a conclu que l’activité sexuelle permet de réduire les effets du stress chronique sur la mémoire, et aurait par conséquent des effets positifs sur sa stimulation. Par contre, petite déception, le contraire n’est pas vrai. Être plus intelligent ne signifie pas avoir plus d’activité sexuelle : une matière grise plus stimulée reculerait en fait l’âge de la première fois, que certains connaissent à la fac… Les études semblent conclure que ceux qui ont une intelligence au-dessus de la moyenne sont moins susceptibles d’avoir des relations sexuelles contrairement aux autres.
Ainsi, le sexe peut augmenter la puissance de l’ensemble des fonctions du cerveau. Alors pour augmenter ses capacités cérébrales, un psychologue du centre de neurosciences à l’université Rudgers a quelques conseils : « Vous pouvez développer de nouvelles cellules avec de l’exercice, et des relations sexuelles. Si on entraîne son cerveau, on conserve les cellules produites plus longtemps. Si on fait les deux, maintenant on le meilleur des deux mondes. On fait plus de cellules, et on les conserve plus longtemps ».



12PARTAGESShareTweet",2022-02-27T17:00:00,Jules,JM
Les règles tacites du sexe - Le blog sexy de Jacquie et Michel !,"Le sexe impliquant deux personnes, ou plus est, un art subtil. Et comme tous les exercices de coordinations, il nécessite souvent une communication de tous les instants, avant, pendant et après, surtout dans les cas de découverte d’un nouvel amant, d’une nouvelle maîtresse.
Mais si discuter de ce qu’on fait et ne fait pas, ce qu’on veut et de ce dont on n’a pas envie, de ce qui suscite l’excitation ou provoque le malaise, ce révèle inévitable, il persiste souvent des non-dits d’une simplicité telle qu’on s’épargne le détail. Or, les évidences ne sont pas les mêmes pour tout le monde. Partant de ce constat, le redditeur xk543x s’est fendu d’un petit thread compilant toutes les règles tacites du sexe entre personnes de bon aloi. L’occasion d’une petite liste des suggestions les plus pertinentes :

Couper les ongles de chaque doigt qu’on prévoit d’introduire dans un orifice (et nettoyer la crasse qui se loge en dessous).
Changer de préservatif entre chaque orifice.
Vaginal puis anal, jamais l’inverse (sinon, voir règle précédente).
 » Oh, oui. Continue ! «  ne signifie pas  » Accélère ! « ,  » Prends-moi plus fort !  » ou  »  Va plus profond ! « , mais bien  » Continue ce que tu fais, c’est très bien comme ça. « 
Les animaux de compagnie ne sont pas conviés aux festivités, même pour regarder. On vire la ménagerie du champ de bataille avant les ébats, ça met les gens mal à l’aise. (C’est aussi valable pour les peluches en pilou et les poupées de porcelaine…)
Le BDSM ne s’improvise pas. Jamais.
Prendre son temps en anal.
Se laver le zob, la fouf’, les balloches, les fesses et le trou du cul préalablement et avec application. À défaut, maintenir une hygiène décente de ces zones-là (et du reste).
Uriner après le rapport, pour prévenir les IST.
Tout doux avec les sextoys (sauf réclamations contraires).
Pas de chrono pendant les préliminaires.
Avoir une serviette de bain propre à porter de main.
Ignorer les frouts (et autres sonorités anatomiques naturelles).
Bien que raide, le pénis est fragile et certaine position sont particulièrement propices aux fractures (avis aux cowgirls et au cowboys).
Toute comparaison avec un partenaire antérieur est grossière et malvenue.
Non, c’est non.

Comme quoi le savoir-vivre sexuel, ça va sans dire, mais ça va quand même mieux en le disant…



12PARTAGESShareTweet",2022-02-26T17:00:16,Savinien,JM
Les meilleures façons de retarder l'éjaculation - Le blog sexy de Jacquie et Michel !,"Il y a ceux qui se sont déjà dit un jour « oh non, pourquoi ça arrive si vite ? Je veux continuer ! ». Ce n’est pas grave, ce n’est qu’un accident ! Il suffit d’attendre quelques minutes et c’est reparti ! Et il y a ceux pour qui les éjaculations précoces sont bien trop fréquentes… Alors quelles solutions s’offrent à vous pour retarder l’éjaculation ?
 
Application cutanée : sprays, lingettes, crèmes
Premier rendez-vous avec votre crush et vous avez envie d’assurer ? Emportez-les avec vous ! Ce sont les meilleurs alliés pour un résultat rapide et efficace.
Nous vous conseillons :
Le spray retardant – Boners

La crème retardante Rhino Log Power 

Les lingettes retardantes – XPower

 
Les pilules
Vous êtes un fin habitué des éjaculations rapides ? Prenez votre petite pilule qui améliore l’érection et retarde l’éjaculation juste avant de passer à l’acte afin d’assurer ce moment torride ! Elle vous permettra également d’avoir des rapports plus rapprochés !
Nous vous conseillons :
Les gélules Supramen 

 
Le retardateur technique : le cockring
Vous n’êtes pas adeptes de produits ni de gélules ? Optez pour un cockring ! Qu’il soit en silicone en TPE ou en acier, celui-ci vous aidera également à retarder l’éjaculation et à faire grossir votre membre ! Ainsi, vous paraîtrez mieux membré et vous pourrez tenir plus longtemps.
Nous vous conseillons :
Le cockring avec ball strap – SONO 48

 
PS : vous pouvez aussi choisir d’avoir des rapports avec quelqu’un de moche ou bien lui demander de mettre les dents…



14PARTAGESShareTweet",2022-02-25T17:00:27,Charlotte,JM
Un préservatif fait pour le sexe anal - Le blog sexy de Jacquie et Michel !,"Le premier préservatif spécialement conçu pour éviter la transmission de MST lors de rapports anaux vient d’être validé par les autorités américaines.
Le One Male Condom peut aussi être utilisé lors de la pénétration vaginale, avec un risque d’échec (rupture, glissement ou les deux) de 1,89%, tandis qu’il se situe à 0,68% durant la sodomie.
« Le risque de transmission de MST est supérieur lors du sexe anal, c’est pourquoi la Food and Drugs Administration a autorisé la mise en vente de ce produit, spécialement conçu pour cette pratique, » indique Courtney Lias, membre de la FDA.
Le préservatif musical ça vous parle ?

Les essais cliniques ont été conduits sur 252 hommes hétérosexuels entre 18 et 54ans. Le taux d’échec général (MST, inconfort pour la partenaire, rupture ou glissement) a été de1,92%. À noter que les participants n’avaient pas été testés pour des MST avant le début de l’étude.
Si des préservatifs extra-lubrifiés existaient déjà pour la pratique de la sodomie, c’est la première fois qu’un ustensile est spécialement dédié à cette pratique, avec des statistiques supérieures. 



17PARTAGESShareTweet",2022-02-24T17:00:16,Ricardo,JM
,,,,
,,,,
Le préservatif musical ça vous parle ? - Le blog sexy de Jacquie et Michel !,"Vous ne rêvez pas, un préservatif chantant a bel et bien été inventé et commercialisé à la fin des années 90 en Allemagne ! C’est lors d’un barbecue entre amis qu’un ingénieur retraité du nom de Karlernst Wiegand a eu l’excellente idée de concevoir un préservatif émettant de la musique lors de débats amoureux. L’origine de cette idée ? Tout se passe mieux en musique, alors pourquoi pas l’amour ?
C’est donc en partant du principe que la musique rythme nos différents moments de vie que l’ingénieur Allemand s’est dit qu’il serait amusant de l’utiliser lors de moments intimes et sensuels, les rendant ainsi plus insolites que jamais. Les plans réalisés par M. Wiegand ont donc imaginé un préservatif pouvant émettre des sons grâce aux différentes palpations de la puce intégrée, qui au fil des mouvements des corps envoie un signal permettant de diffuser la musique. Un brevet plus tard et plusieurs démarchages commerciales effectuées, l’innovant produit qu’était le préservatif musical était à la bouche de tous les responsables des sex-shops environnants.
M. Wiegand ne voulant pas dépasser un prix maximal de 10€, il était très compliqué de trouver un terrain d’entente avec les différents sex-shops qui souhaitaient les vendre beaucoup plus cher. C’est donc à cause d’une histoire de prix que cette idée de préservatif musical n’est pas allée plus loin…



17PARTAGESShareTweet",2022-02-22T17:00:39,Elodie,JM
Jeux Olympiques : un skieur finlandais se gèle le pénis - Le blog sexy de Jacquie et Michel !,"Et ce n’est pas la première fois que cela lui arrive.
Samedi 19 février, pour le dernier week-end des Jeux Olympiques d’hiver de Pékin 2022, Remi Lindholm a terminé la mass start de cross country avec une blessure aussi douloureuse qu’insolite : un pénis gelé.

L’épreuve, habituellement longue de cinquante kilomètres, avait déjà été réduite à trente par les organisateurs à cause du vent qui soufflait violemment sur Zhangjiakou, rendant la température glaciale. Retardée d’une heure dans l’espoir, vain, que les conditions s’améliorent, la course avait fini par être lancée et la fine combinaison de Remi Lindholm n’avait pu protéger sa virilité de la morsure du froid.
« Il est aisé de deviner quelle partie de mon anatomie était gelée à la fin de la course, » a-til expliqué à un média finlandais. « C’était l’une des pires courses de ma vie, une lutte sans répit. »

Faut souffler dessus ! https://t.co/wMOl173RFj
— Brocciuland is Brocciu Wayne (@nicorsenicon) February 20, 2022

L’athlète de 24ans a néanmoins réussi à rejoindre la ligne d’arrivée à la 28e place, après une heure et seize minutes de souffrance, et a immédiatement mis une bouilloire sur la partie concernée.
« Quand mon corps a commencé à se réchauffer après l’arrivée, la douleur était intolérable et j’ai dû utiliser une bouilloire. »
Aussi étonnant que celui puisse paraître, Remi Lindholm avait connu une expérience similaire l’an dernier lors d’une course en Finlande.





24PARTAGESShareTweet",2022-02-21T17:00:23,Ricardo,JM
,,,,
,,,,
,,,,
